{"count":1228,"next":"https://www.udemy.com/api-2.0/courses/?page=2&page_size=10&ratings=4&search=vue","previous":null,"results":[{"_class":"course","id":995016,"title":"Vue - The Complete Guide (incl. Router & Composition API)","url":"/course/vuejs-2-the-complete-guide/","is_paid":true,"price":"€89.99","price_detail":{"amount":89.99,"currency":"EUR","price_string":"€89.99","currency_symbol":"€"},"price_serve_tracking_id":"NCFascZLSnGkKf-nD_al8A","visible_instructors":[{"_class":"user","title":"Maximilian Schwarzmüller","name":"Maximilian","display_name":"Maximilian Schwarzmüller","job_title":"AWS certified, Professional Web Developer and Instructor","image_50x50":"https://img-c.udemycdn.com/user/50x50/13952972_e853.jpg","image_100x100":"https://img-c.udemycdn.com/user/100x100/13952972_e853.jpg","initials":"MS","url":"/user/maximilian-schwarzmuller/"}],"image_125_H":"https://img-c.udemycdn.com/course/125_H/995016_ebf4_3.jpg","image_240x135":"https://img-c.udemycdn.com/course/240x135/995016_ebf4_3.jpg","is_practice_test_course":false,"image_480x270":"https://img-c.udemycdn.com/course/480x270/995016_ebf4_3.jpg","published_title":"vuejs-2-the-complete-guide","tracking_id":"","locale":{"_class":"locale","locale":"en_US","title":"English (US)","english_title":"English (US)","simple_english_title":"English"},"predictive_score":null,"relevancy_score":null,"input_features":null,"lecture_search_result":null,"curriculum_lectures":[],"order_in_results":null,"curriculum_items":[],"headline":"Vue.js is an awesome JavaScript Framework for building Frontend Applications! VueJS mixes the Best of Angular + React!","instructor_name":null},{"_class":"course","id":3624936,"title":"Complete Vue Developer Bootcamp (Pinia, Vitest)","url":"/course/complete-vue-js-developer-zero-to-mastery-vuex/","is_paid":true,"price":"€79.99","price_detail":{"amount":79.99,"currency":"EUR","price_string":"€79.99","currency_symbol":"€"},"price_serve_tracking_id":"aGr2muCeQ-2PtbmcMY7_3g","visible_instructors":[{"_class":"user","title":"Andrei Neagoie","name":"Andrei","display_name":"Andrei Neagoie","job_title":"Founder of zerotomastery.io","image_50x50":"https://img-c.udemycdn.com/user/50x50/38516954_b11c_3.jpg","image_100x100":"https://img-c.udemycdn.com/user/100x100/38516954_b11c_3.jpg","initials":"AN","url":"/user/andrei-neagoie/"},{"_class":"user","title":"Luis Ramirez Jr","name":"Luis Ramirez","display_name":"Luis Ramirez Jr","job_title":"Frontend Software Engineer Instructor","image_50x50":"https://img-c.udemycdn.com/user/50x50/10964188_5295_9.jpg","image_100x100":"https://img-c.udemycdn.com/user/100x100/10964188_5295_9.jpg","initials":"LJ","url":"/user/luisramirezjr/"}],"image_125_H":"https://img-c.udemycdn.com/course/125_H/3624936_53aa_2.jpg","image_240x135":"https://img-c.udemycdn.com/course/240x135/3624936_53aa_2.jpg","is_practice_test_course":false,"image_480x270":"https://img-c.udemycdn.com/course/480x270/3624936_53aa_2.jpg","published_title":"complete-vue-js-developer-zero-to-mastery-vuex","tracking_id":"","locale":{"_class":"locale","locale":"en_US","title":"English (US)","english_title":"English (US)","simple_english_title":"English"},"predictive_score":null,"relevancy_score":null,"input_features":null,"lecture_search_result":null,"curriculum_lectures":[],"order_in_results":null,"curriculum_items":[],"headline":"Ultimate guide to Vue 3 Development. Build large scale applications and deploy to production. Go from Zero to Mastery!","instructor_name":null},{"_class":"course","id":1639836,"title":"Build Web Apps with Vue JS 3 & Firebase","url":"/course/build-web-apps-with-vuejs-firebase/","is_paid":true,"price":"€69.99","price_detail":{"amount":69.99,"currency":"EUR","price_string":"€69.99","currency_symbol":"€"},"price_serve_tracking_id":"4kEB-TV3RYO1cQhJbCXMsA","visible_instructors":[{"_class":"user","title":"The Net Ninja (Shaun Pelling)","name":"The Net Ninja","display_name":"The Net Ninja (Shaun Pelling)","job_title":"Online Coding Tutor & Net Ninja","image_50x50":"https://img-c.udemycdn.com/user/50x50/35642982_61b8.jpg","image_100x100":"https://img-c.udemycdn.com/user/100x100/35642982_61b8.jpg","initials":"T(","url":"/user/47fd83f6-5e4a-4e87-a0f0-519ac51f91b6/"}],"image_125_H":"https://img-c.udemycdn.com/course/125_H/1639836_a03e_5.jpg","image_240x135":"https://img-c.udemycdn.com/course/240x135/1639836_a03e_5.jpg","is_practice_test_course":false,"image_480x270":"https://img-c.udemycdn.com/course/480x270/1639836_a03e_5.jpg","published_title":"build-web-apps-with-vuejs-firebase","tracking_id":"","locale":{"_class":"locale","locale":"en_US","title":"English (US)","english_title":"English (US)","simple_english_title":"English"},"predictive_score":null,"relevancy_score":null,"input_features":null,"lecture_search_result":null,"curriculum_lectures":[],"order_in_results":null,"curriculum_items":[],"headline":"Learn Vue JS 3 & Firebase by creating & deploying dynamic web apps (including Authentication).","instructor_name":null},{"_class":"course","id":1945304,"title":"The complete VUE JS course ( 2024 edition )","url":"/course/the-complete-vue-js-course/","is_paid":true,"price":"€59.99","price_detail":{"amount":59.99,"currency":"EUR","price_string":"€59.99","currency_symbol":"€"},"price_serve_tracking_id":"yvP2qvRxST-Sm6kt7S89NA","visible_instructors":[{"_class":"user","title":"Coding Revolution","name":"Coding","display_name":"Coding Revolution","job_title":"Professional Instructor and Web Developer.","image_50x50":"https://img-c.udemycdn.com/user/50x50/33236808_79b3_2.jpg","image_100x100":"https://img-c.udemycdn.com/user/100x100/33236808_79b3_2.jpg","initials":"CR","url":"/user/codign-revolution/"}],"image_125_H":"https://img-c.udemycdn.com/course/125_H/1945304_07e6.jpg","image_240x135":"https://img-c.udemycdn.com/course/240x135/1945304_07e6.jpg","is_practice_test_course":false,"image_480x270":"https://img-c.udemycdn.com/course/480x270/1945304_07e6.jpg","published_title":"the-complete-vue-js-course","tracking_id":"","locale":{"_class":"locale","locale":"en_US","title":"English (US)","english_title":"English (US)","simple_english_title":"English"},"predictive_score":null,"relevancy_score":null,"input_features":null,"lecture_search_result":null,"curriculum_lectures":[],"order_in_results":null,"curriculum_items":[],"headline":"Build beautiful web apps using VUE JS, version 3.  Pinia and Firebase included","instructor_name":null},{"_class":"course","id":4564022,"title":"Vue JS 3: Composition API (with Pinia, Firebase 9 & Vite)","url":"/course/vue-js-3-composition-api/","is_paid":true,"price":"€69.99","price_detail":{"amount":69.99,"currency":"EUR","price_string":"€69.99","currency_symbol":"€"},"price_serve_tracking_id":"ITZLIRWZTvuHFCsi31lVLw","visible_instructors":[{"_class":"user","title":"Danny Connell","name":"Danny","display_name":"Danny Connell","job_title":"Indie App Developer & Instructor","image_50x50":"https://img-c.udemycdn.com/user/50x50/3595942_e0c5_2.jpg","image_100x100":"https://img-c.udemycdn.com/user/100x100/3595942_e0c5_2.jpg","initials":"DC","url":"/user/dannyconnell/"}],"image_125_H":"https://img-c.udemycdn.com/course/125_H/4564022_3673_6.jpg","image_240x135":"https://img-c.udemycdn.com/course/240x135/4564022_3673_6.jpg","is_practice_test_course":false,"image_480x270":"https://img-c.udemycdn.com/course/480x270/4564022_3673_6.jpg","published_title":"vue-js-3-composition-api","tracking_id":"","locale":{"_class":"locale","locale":"en_US","title":"English (US)","english_title":"English (US)","simple_english_title":"English"},"predictive_score":null,"relevancy_score":null,"input_features":null,"lecture_search_result":null,"curriculum_lectures":[],"order_in_results":null,"curriculum_items":[],"headline":"Already know the Options API? Switch over to the Composition API as quickly as possible! (Oh, and Pinia & Firebase 9!)","instructor_name":null},{"_class":"course","id":3966970,"title":"Vue Masterclass (Covers Vue 2 and 3)","url":"/course/vue-masterclass/","is_paid":true,"price":"€69.99","price_detail":{"amount":69.99,"currency":"EUR","price_string":"€69.99","currency_symbol":"€"},"price_serve_tracking_id":"2v3aXaB8QdmYv63-44MgeA","visible_instructors":[{"_class":"user","title":"Boris Paskhaver","name":"Boris","display_name":"Boris Paskhaver","job_title":"Software Engineer | Consultant | Author","image_50x50":"https://img-c.udemycdn.com/user/50x50/7947666_5e30_4.jpg","image_100x100":"https://img-c.udemycdn.com/user/100x100/7947666_5e30_4.jpg","initials":"BP","url":"/user/borispaskhaver/"}],"image_125_H":"https://img-c.udemycdn.com/course/125_H/3966970_d5e8.jpg","image_240x135":"https://img-c.udemycdn.com/course/240x135/3966970_d5e8.jpg","is_practice_test_course":false,"image_480x270":"https://img-c.udemycdn.com/course/480x270/3966970_d5e8.jpg","published_title":"vue-masterclass","tracking_id":"","locale":{"_class":"locale","locale":"en_US","title":"English (US)","english_title":"English (US)","simple_english_title":"English"},"predictive_score":null,"relevancy_score":null,"input_features":null,"lecture_search_result":null,"curriculum_lectures":[],"order_in_results":null,"curriculum_items":[],"headline":"Learn VueJS and build a complete real-world project using Vue, Pinia, TypeScript, TailwindCSS, Vitest, and more.","instructor_name":null},{"_class":"course","id":1605992,"title":"Vue JS Essentials with Vuex and Vue Router","url":"/course/vue-js-course/","is_paid":true,"price":"€59.99","price_detail":{"amount":59.99,"currency":"EUR","price_string":"€59.99","currency_symbol":"€"},"price_serve_tracking_id":"MVxPQNNlSIGbKes6kNPsnw","visible_instructors":[{"_class":"user","title":"Stephen Grider","name":"Stephen","display_name":"Stephen Grider","job_title":"Engineering Architect","image_50x50":"https://img-c.udemycdn.com/user/50x50/5487312_0554.jpg","image_100x100":"https://img-c.udemycdn.com/user/100x100/5487312_0554.jpg","initials":"SG","url":"/user/sgslo/"}],"image_125_H":"https://img-c.udemycdn.com/course/125_H/1605992_39af_3.jpg","image_240x135":"https://img-c.udemycdn.com/course/240x135/1605992_39af_3.jpg","is_practice_test_course":false,"image_480x270":"https://img-c.udemycdn.com/course/480x270/1605992_39af_3.jpg","published_title":"vue-js-course","tracking_id":"","locale":{"_class":"locale","locale":"en_US","title":"English (US)","english_title":"English (US)","simple_english_title":"English"},"predictive_score":null,"relevancy_score":null,"input_features":null,"lecture_search_result":null,"curriculum_lectures":[],"order_in_results":null,"curriculum_items":[],"headline":"Have limited time to learn Vue, Vuex, and Vue Router?  Take this course and learn Vue in 11 hours!","instructor_name":null},{"_class":"course","id":5533422,"title":"Vue | Vue Js Web Development Course with Real Vuejs Projects","url":"/course/vue-vue-js-web-development-course-with-real-vuejs-projects/","is_paid":true,"price":"€39.99","price_detail":{"amount":39.99,"currency":"EUR","price_string":"€39.99","currency_symbol":"€"},"price_serve_tracking_id":"nlms-s1hS7-E_UO8LB3H8A","visible_instructors":[{"_class":"user","title":"Oak Academy","name":"Oak","display_name":"Oak Academy","job_title":"Web & Mobile Development, IOS, Android, Ethical Hacking, IT","image_50x50":"https://img-c.udemycdn.com/user/50x50/63572698_2c48_7.jpg","image_100x100":"https://img-c.udemycdn.com/user/100x100/63572698_2c48_7.jpg","initials":"OA","url":"/user/oak-academy/"},{"_class":"user","title":"OAK Academy Team","name":"OAK Academy","display_name":"OAK Academy Team","job_title":"instructor","image_50x50":"https://img-c.udemycdn.com/user/50x50/143704462_f1b4_6.jpg","image_100x100":"https://img-c.udemycdn.com/user/100x100/143704462_f1b4_6.jpg","initials":"OT","url":"/user/mehmet-emin-atmaca-2/"},{"_class":"user","title":"Murat Çamurlu","name":"Murat","display_name":"Murat Çamurlu","job_title":"OAK Academy Instructor","image_50x50":"https://img-c.udemycdn.com/user/50x50/205341392_f71e.jpg","image_100x100":"https://img-c.udemycdn.com/user/100x100/205341392_f71e.jpg","initials":"MC","url":"/user/murat-camurlu/"}],"image_125_H":"https://img-c.udemycdn.com/course/125_H/5533422_777d_3.jpg","image_240x135":"https://img-c.udemycdn.com/course/240x135/5533422_777d_3.jpg","is_practice_test_course":false,"image_480x270":"https://img-c.udemycdn.com/course/480x270/5533422_777d_3.jpg","published_title":"vue-vue-js-web-development-course-with-real-vuejs-projects","tracking_id":"","locale":{"_class":"locale","locale":"en_US","title":"English (US)","english_title":"English (US)","simple_english_title":"English"},"predictive_score":null,"relevancy_score":null,"input_features":null,"lecture_search_result":null,"curriculum_lectures":[],"order_in_results":null,"curriculum_items":[],"headline":"Vue Js is a popular Front End JavaScript Framework. Learn Vue 3, build Vuejs web applications and be a Vue.js master","instructor_name":null},{"_class":"course","id":5915066,"title":"Vue 3 in Action: 6 Projects to Master the Framework","url":"/course/vue-in-action/","is_paid":true,"price":"€49.99","price_detail":{"amount":49.99,"currency":"EUR","price_string":"€49.99","currency_symbol":"€"},"price_serve_tracking_id":"bQx815jNSAeXwODgEdaSuw","visible_instructors":[{"_class":"user","title":"Piotr Jura | 57,000+ Students","name":"Piotr","display_name":"Piotr Jura | 57,000+ Students","job_title":"Best Selling and Highest Rated Web Development Instructor","image_50x50":"https://img-c.udemycdn.com/user/50x50/7220442_80ea_3.jpg","image_100x100":"https://img-c.udemycdn.com/user/100x100/7220442_80ea_3.jpg","initials":"PJ","url":"/user/piotrjura/"}],"image_125_H":"https://img-c.udemycdn.com/course/125_H/5915066_6a63_2.jpg","image_240x135":"https://img-c.udemycdn.com/course/240x135/5915066_6a63_2.jpg","is_practice_test_course":false,"image_480x270":"https://img-c.udemycdn.com/course/480x270/5915066_6a63_2.jpg","published_title":"vue-in-action","tracking_id":"","locale":{"_class":"locale","locale":"en_US","title":"English (US)","english_title":"English (US)","simple_english_title":"English"},"predictive_score":null,"relevancy_score":null,"input_features":null,"lecture_search_result":null,"curriculum_lectures":[],"order_in_results":null,"curriculum_items":[],"headline":"Master Vue 3 with hands-on projects, step-by-step tutorials, and real-world applications for developers at all levels.","instructor_name":null},{"_class":"course","id":4851832,"title":"The Vue 3 Bootcamp - The Complete Developer Guide","url":"/course/the-vue-3-bootcamp-the-complete-developer-guide/","is_paid":true,"price":"€69.99","price_detail":{"amount":69.99,"currency":"EUR","price_string":"€69.99","currency_symbol":"€"},"price_serve_tracking_id":"K3plq1OpTkWLMZZPpNh-6Q","visible_instructors":[{"_class":"user","title":"Laith Harb","name":"Laith","display_name":"Laith Harb","job_title":"Software Engineer","image_50x50":"https://img-c.udemycdn.com/user/50x50/72111958_3971_2.jpg","image_100x100":"https://img-c.udemycdn.com/user/100x100/72111958_3971_2.jpg","initials":"LH","url":"/user/get-it-now/"}],"image_125_H":"https://img-c.udemycdn.com/course/125_H/4851832_83b7_3.jpg","image_240x135":"https://img-c.udemycdn.com/course/240x135/4851832_83b7_3.jpg","is_practice_test_course":false,"image_480x270":"https://img-c.udemycdn.com/course/480x270/4851832_83b7_3.jpg","published_title":"the-vue-3-bootcamp-the-complete-developer-guide","tracking_id":"","locale":{"_class":"locale","locale":"en_US","title":"English (US)","english_title":"English (US)","simple_english_title":"English"},"predictive_score":null,"relevancy_score":null,"input_features":null,"lecture_search_result":null,"curriculum_lectures":[],"order_in_results":null,"curriculum_items":[],"headline":"Learn to built frontend Vue 3 applications using Pinia, TypeScript, Supabase and the Composition API","instructor_name":null}],"aggregations":[{"title":"Price","key":"price","options":[{"title":"Paid","count":1136,"key":"price","value":"price-paid"},{"title":"Free","count":92,"key":"price","value":"price-free"}]},{"title":"Level","key":"instructional_level","options":[{"title":"All Levels","count":514,"key":"instructional_level","value":"all"},{"title":"Beginner","count":472,"key":"instructional_level","value":"beginner"},{"title":"Intermediate","count":225,"key":"instructional_level","value":"intermediate"},{"title":"Expert","count":17,"key":"instructional_level","value":"expert"}]},{"title":"Features","key":"features","options":[{"title":"Subtitles","count":891,"key":"features","value":"has_closed_caption"},{"title":"Quizzes","count":202,"key":"features","value":"has_simple_quiz"},{"title":"Coding Exercises","count":20,"key":"features","value":"has_coding_exercises"},{"title":"Practice Tests","count":21,"key":"features","value":"has_practice_test"}]},{"title":"Language","key":"language","options":[{"title":"Français","count":429,"key":"lang","value":"fr"},{"title":"English","count":356,"key":"lang","value":"en"},{"title":"Español","count":106,"key":"lang","value":"es"},{"title":"Português","count":77,"key":"lang","value":"pt"},{"title":"Türkçe","count":49,"key":"lang","value":"tr"},{"title":"中文","count":47,"key":"lang","value":"zh"},{"title":"日本語","count":43,"key":"lang","value":"ja"},{"title":"العربية","count":36,"key":"lang","value":"ar"},{"title":"Bahasa Indonesia","count":18,"key":"lang","value":"id"},{"title":"한국어","count":16,"key":"lang","value":"ko"},{"title":"Русский","count":12,"key":"lang","value":"ru"},{"title":"Italiano","count":10,"key":"lang","value":"it"},{"title":"Polski","count":10,"key":"lang","value":"pl"},{"title":"Deutsch","count":6,"key":"lang","value":"de"},{"title":"ไทย","count":3,"key":"lang","value":"th"},{"title":"Українська","count":2,"key":"lang","value":"uk"},{"title":"اردو","count":2,"key":"lang","value":"ur"},{"title":"Tiếng Việt","count":2,"key":"lang","value":"vi"},{"title":"বাংলা","count":1,"key":"lang","value":"bn"},{"title":"Ελληνικά","count":1,"key":"lang","value":"el"},{"title":"हिन्दी","count":1,"key":"lang","value":"hi"},{"title":"தமிழ்","count":1,"key":"lang","value":"ta"}]},{"title":"Ratings","key":"ratings","options":[{"title":"4.5 & up","count":664,"key":"ratings","value":"4.5"},{"title":"4.0 & up","count":1228,"key":"ratings","value":"4.0"},{"title":"3.5 & up","count":1468,"key":"ratings","value":"3.5"},{"title":"3.0 & up","count":1532,"key":"ratings","value":"3.0"}]},{"title":"Video Duration","key":"duration","options":[{"title":"0-1 Hour","count":40,"key":"duration","value":"extraShort"},{"title":"1-3 Hours","count":248,"key":"duration","value":"short"},{"title":"3-6 Hours","count":278,"key":"duration","value":"medium"},{"title":"6-17 Hours","count":400,"key":"duration","value":"long"},{"title":"17+ Hours","count":262,"key":"duration","value":"extraLong"}]}]}